…
``` r
accident %>% group_by(mlat) %>% summarise(n())
```

    ## # A tibble: 23 × 2
    ##     mlat `n()`
    ##    <dbl> <int>
    ##  1  49.8 27300
    ##  2  50.2 37579
    ##  3  50.8 51270
    ##  4  51.2 44455
    ##  5  51.8 47852
    ##  6  52.2 54693
    ##  7  52.8 54786
    ##  8  53.2 47992
    ##  9  53.8 48006
    ## 10  54.2 44577
    ## # … with 13 more rows
…
